[
   {
      "label": "amnesty",
      "data":"amnesty.json"
   },
   {
     "label": "degewo-leistungstraeger",
     "data": "degewo.json"
   },
   {
     "label": "aussenwerbung",
     "data": "aussenwerbung.json"
   }
]
